TEC_BGN "main";



ATTR_BGN;
ATTR "direct";
ATTR_END;



COMBO_BGN 0x0000;
PASS_BGN;
VS "vs_2d";
PS "noise";
PASS_END;
COMBO_END;

COMBO_BGN 0x0001;
PASS_BGN;
VS "vs_2d_direct";
PS "noise";
PASS_END;
COMBO_END;

TEC_END;
